<?xml version="1.0" encoding="UTF-8"?>
<symbol version="7" name="top">
    <symboltype>BLOCK</symboltype>
    <timestamp>2016-1-16T8:6:46</timestamp>
    <pin polarity="Input" x="0" y="-160" name="clk" />
    <pin polarity="Input" x="0" y="-96" name="stop" />
    <pin polarity="Input" x="0" y="-32" name="start" />
    <pin polarity="Output" x="384" y="-160" name="A_encoder" />
    <pin polarity="Output" x="384" y="-32" name="B_encoder" />
    <graph>
        <rect width="256" x="64" y="-192" height="192" />
        <attrtext style="alignment:BCENTER;fontsize:56;fontname:Arial" attrname="SymbolName" x="192" y="-200" type="symbol" />
        <attrtext style="fontsize:24;fontname:Arial" attrname="PinName" x="72" y="-160" type="pin clk" />
        <line x2="0" y1="-160" y2="-160" x1="64" />
        <attrtext style="fontsize:24;fontname:Arial" attrname="PinName" x="72" y="-96" type="pin stop" />
        <line x2="0" y1="-96" y2="-96" x1="64" />
        <attrtext style="fontsize:24;fontname:Arial" attrname="PinName" x="72" y="-32" type="pin start" />
        <line x2="0" y1="-32" y2="-32" x1="64" />
        <attrtext style="alignment:RIGHT;fontsize:24;fontname:Arial" attrname="PinName" x="312" y="-160" type="pin A_encoder" />
        <line x2="384" y1="-160" y2="-160" x1="320" />
        <attrtext style="alignment:RIGHT;fontsize:24;fontname:Arial" attrname="PinName" x="312" y="-32" type="pin B_encoder" />
        <line x2="384" y1="-32" y2="-32" x1="320" />
    </graph>
</symbol>
